%YAML 1.1
%TAG !u! tag:unity3d.com,2011:
--- !u!1 &7513217350469530233
GameObject:
  m_ObjectHideFlags: 0
  m_CorrespondingSourceObject: {fileID: 0}
  m_PrefabInstance: {fileID: 0}
  m_PrefabAsset: {fileID: 0}
  serializedVersion: 6
  m_Component:
  - component: {fileID: 3674113239359675151}
  m_Layer: 0
  m_Name: PlatformGreenAndCoin
  m_TagString: Untagged
  m_Icon: {fileID: 0}
  m_NavMeshLayer: 0
  m_StaticEditorFlags: 0
  m_IsActive: 1
--- !u!4 &3674113239359675151
Transform:
  m_ObjectHideFlags: 0
  m_CorrespondingSourceObject: {fileID: 0}
  m_PrefabInstance: {fileID: 0}
  m_PrefabAsset: {fileID: 0}
  m_GameObject: {fileID: 7513217350469530233}
  m_LocalRotation: {x: 0, y: 0, z: 0, w: 1}
  m_LocalPosition: {x: 0, y: 0, z: 0}
  m_LocalScale: {x: 1, y: 1, z: 1}
  m_Children:
  - {fileID: 7318631483393786258}
  - {fileID: 8890711680920385278}
  m_Father: {fileID: 0}
  m_RootOrder: 0
  m_LocalEulerAnglesHint: {x: 0, y: 0, z: 0}
--- !u!1001 &5695720910815324772
PrefabInstance:
  m_ObjectHideFlags: 0
  serializedVersion: 2
  m_Modification:
    m_TransformParent: {fileID: 3674113239359675151}
    m_Modifications:
    - target: {fileID: 3776660635115691162, guid: c38753fa8d28f0443a4f03f65d251867, type: 3}
      propertyPath: m_RootOrder
      value: 1
      objectReference: {fileID: 0}
    - target: {fileID: 3776660635115691162, guid: c38753fa8d28f0443a4f03f65d251867, type: 3}
      propertyPath: m_LocalPosition.x
      value: 0
      objectReference: {fileID: 0}
    - target: {fileID: 3776660635115691162, guid: c38753fa8d28f0443a4f03f65d251867, type: 3}
      propertyPath: m_LocalPosition.y
      value: 1.742
      objectReference: {fileID: 0}
    - target: {fileID: 3776660635115691162, guid: c38753fa8d28f0443a4f03f65d251867, type: 3}
      propertyPath: m_LocalPosition.z
      value: -2.709
      objectReference: {fileID: 0}
    - target: {fileID: 3776660635115691162, guid: c38753fa8d28f0443a4f03f65d251867, type: 3}
      propertyPath: m_LocalRotation.w
      value: 1
      objectReference: {fileID: 0}
    - target: {fileID: 3776660635115691162, guid: c38753fa8d28f0443a4f03f65d251867, type: 3}
      propertyPath: m_LocalRotation.x
      value: -0
      objectReference: {fileID: 0}
    - target: {fileID: 3776660635115691162, guid: c38753fa8d28f0443a4f03f65d251867, type: 3}
      propertyPath: m_LocalRotation.y
      value: -0
      objectReference: {fileID: 0}
    - target: {fileID: 3776660635115691162, guid: c38753fa8d28f0443a4f03f65d251867, type: 3}
      propertyPath: m_LocalRotation.z
      value: -0
      objectReference: {fileID: 0}
    - target: {fileID: 3776660635115691162, guid: c38753fa8d28f0443a4f03f65d251867, type: 3}
      propertyPath: m_LocalEulerAnglesHint.x
      value: 0
      objectReference: {fileID: 0}
    - target: {fileID: 3776660635115691162, guid: c38753fa8d28f0443a4f03f65d251867, type: 3}
      propertyPath: m_LocalEulerAnglesHint.y
      value: 0
      objectReference: {fileID: 0}
    - target: {fileID: 3776660635115691162, guid: c38753fa8d28f0443a4f03f65d251867, type: 3}
      propertyPath: m_LocalEulerAnglesHint.z
      value: 0
      objectReference: {fileID: 0}
    - target: {fileID: 7024613659526602305, guid: c38753fa8d28f0443a4f03f65d251867, type: 3}
      propertyPath: m_Name
      value: Coin
      objectReference: {fileID: 0}
    m_RemovedComponents: []
  m_SourcePrefab: {fileID: 100100000, guid: c38753fa8d28f0443a4f03f65d251867, type: 3}
--- !u!4 &8890711680920385278 stripped
Transform:
  m_CorrespondingSourceObject: {fileID: 3776660635115691162, guid: c38753fa8d28f0443a4f03f65d251867, type: 3}
  m_PrefabInstance: {fileID: 5695720910815324772}
  m_PrefabAsset: {fileID: 0}
--- !u!1001 &8902150217273831345
PrefabInstance:
  m_ObjectHideFlags: 0
  serializedVersion: 2
  m_Modification:
    m_TransformParent: {fileID: 3674113239359675151}
    m_Modifications:
    - target: {fileID: 2169550820807847459, guid: 9ab18793661a6804b93c99c93ca5d071, type: 3}
      propertyPath: m_RootOrder
      value: 0
      objectReference: {fileID: 0}
    - target: {fileID: 2169550820807847459, guid: 9ab18793661a6804b93c99c93ca5d071, type: 3}
      propertyPath: m_LocalPosition.x
      value: 0
      objectReference: {fileID: 0}
    - target: {fileID: 2169550820807847459, guid: 9ab18793661a6804b93c99c93ca5d071, type: 3}
      propertyPath: m_LocalPosition.y
      value: 0
      objectReference: {fileID: 0}
    - target: {fileID: 2169550820807847459, guid: 9ab18793661a6804b93c99c93ca5d071, type: 3}
      propertyPath: m_LocalPosition.z
      value: 0
      objectReference: {fileID: 0}
    - target: {fileID: 2169550820807847459, guid: 9ab18793661a6804b93c99c93ca5d071, type: 3}
      propertyPath: m_LocalRotation.w
      value: 1
      objectReference: {fileID: 0}
    - target: {fileID: 2169550820807847459, guid: 9ab18793661a6804b93c99c93ca5d071, type: 3}
      propertyPath: m_LocalRotation.x
      value: -0
      objectReference: {fileID: 0}
    - target: {fileID: 2169550820807847459, guid: 9ab18793661a6804b93c99c93ca5d071, type: 3}
      propertyPath: m_LocalRotation.y
      value: -0
      objectReference: {fileID: 0}
    - target: {fileID: 2169550820807847459, guid: 9ab18793661a6804b93c99c93ca5d071, type: 3}
      propertyPath: m_LocalRotation.z
      value: -0
      objectReference: {fileID: 0}
    - target: {fileID: 2169550820807847459, guid: 9ab18793661a6804b93c99c93ca5d071, type: 3}
      propertyPath: m_LocalEulerAnglesHint.x
      value: 0
      objectReference: {fileID: 0}
    - target: {fileID: 2169550820807847459, guid: 9ab18793661a6804b93c99c93ca5d071, type: 3}
      propertyPath: m_LocalEulerAnglesHint.y
      value: 0
      objectReference: {fileID: 0}
    - target: {fileID: 2169550820807847459, guid: 9ab18793661a6804b93c99c93ca5d071, type: 3}
      propertyPath: m_LocalEulerAnglesHint.z
      value: 0
      objectReference: {fileID: 0}
    - target: {fileID: 4813151765953331570, guid: 9ab18793661a6804b93c99c93ca5d071, type: 3}
      propertyPath: m_Name
      value: PlatformGreen
      objectReference: {fileID: 0}
    - target: {fileID: 4813151765953331570, guid: 9ab18793661a6804b93c99c93ca5d071, type: 3}
      propertyPath: m_IsActive
      value: 1
      objectReference: {fileID: 0}
    m_RemovedComponents: []
  m_SourcePrefab: {fileID: 100100000, guid: 9ab18793661a6804b93c99c93ca5d071, type: 3}
--- !u!4 &7318631483393786258 stripped
Transform:
  m_CorrespondingSourceObject: {fileID: 2169550820807847459, guid: 9ab18793661a6804b93c99c93ca5d071, type: 3}
  m_PrefabInstance: {fileID: 8902150217273831345}
  m_PrefabAsset: {fileID: 0}
