%YAML 1.1
%TAG !u! tag:unity3d.com,2011:
--- !u!1045 &1
EditorBuildSettings:
  m_ObjectHideFlags: 0
  serializedVersion: 2
  m_Scenes:
  - enabled: 1
    path: Assets/Scenes/Levels/Menu.unity
    guid: fbdd0bc1afba36b438fc7a9ce5f93116
  - enabled: 1
    path: Assets/Scenes/Levels/Level1.unity
    guid: 128f9de4843583b489b863f101ec370f
  - enabled: 1
    path: Assets/Scenes/Levels/Level2.unity
    guid: 17c67ccc78a6124459a2ced070b371af
  - enabled: 1
    path: Assets/Scenes/Levels/Level3.unity
    guid: c2a7f5b6a310401478a5381f1574e17f
  - enabled: 1
    path: Assets/Scenes/Levels/Level4.unity
    guid: a32d6ea1ee517cb4bac39da0c2ac8ac3
  m_configObjects: {}
